{
  "totalCount": 3,
  "results": [
    {
      "jobId": "Job #1235",
      "updatedTime": "2017-09-19T07:13:34.556Z",
      "status": {
        "id": "3",
        "type": "CANCELLED"
      },
      "title": "Service No Longer Required",
      "reason": "Customer found alternate solution",
      "description": "Please continue with next job you have in queue or be ready for the next job assignment"
    },
    {
      "jobId": "Job #1230",
      "updatedTime": "2017-09-19T07:13:34.556Z",
      "status": {
        "id": "1",
        "type": "NEW"
      },
      "title": "New Job Assignment",
      "description": "You have been assigned a Tow"
    },
    {
      "jobId": "Job #1234",
      "updatedTime": "2017-09-20T07:13:34.556Z",
      "status": {
        "id": "2",
        "type": "ASSIGNED"
      },
      "title": "Disablement address updated",
      "description": "The disablement address has been updated"
    },
    {
      "jobId": "Job #1233",
      "updatedTime": "2017-09-20T07:13:34.556Z",
      "status": {
        "id": "1",
        "type": "NEW"
      },
      "title": "New Job Assignment",
      "description": "You have been assigned a Tow"
    },
    {
      "jobId": "Job #1232",
      "updatedTime": "2017-09-20T07:13:34.556Z",
      "status": {
        "id": "1",
        "type": "CANCELLED"
      },
      "title": "New Job Assignment",
      "description": "You have been assigned a Tow"
    },
    {
      "jobId": "Job #1231",
      "updatedTime": "2017-09-11T07:13:34.556Z",
      "status": {
        "id": "1",
        "type": "ASSIGNED"
      },
      "title": "New Job Assignment",
      "description": "You have been assigned a Tow"
    },
    {
      "jobId": "Job #1230",
      "updatedTime": "2017-09-11T07:13:34.556Z",
      "status": {
        "id": "1",
        "type": "NEW"
      },
      "title": "New Job Assignment",
      "description": "You have been assigned a Tow"
    }
  ]
}